{
	"window-size": {
		"width": 1900,
		"height": 1020
	},
	"window-maximized": false,
	"window-position": {
		"x": 10,
		"y": 50
	},
	"url": "https://music.youtube.com/watch?v=XMXXL8ka7eU&list=RDAMVMXMXXL8ka7eU&index=0",
	"options": {
		"tray": false,
		"appVisible": true,
		"autoUpdates": true,
		"alwaysOnTop": false,
		"hideMenu": false,
		"hideMenuWarned": false,
		"startAtLogin": false,
		"disableHardwareAcceleration": false,
		"removeUpgradeButton": false,
		"restartOnConfigChanges": false,
		"trayClickPlayPause": false,
		"autoResetAppCache": false,
		"resumeOnStart": true,
		"likeButtons": "",
		"proxy": "",
		"startingPage": "Explore",
		"overrideUserAgent": false,
		"usePodcastParticipantAsArtist": false,
		"themes": [
			"D:\\YouTubeMusic\\custom.css"
		]
	},
	"plugins": {
		"notifications": {},
		"video-toggle": {
			"mode": "custom"
		},
		"precise-volume": {
			"globalShortcuts": {}
		},
		"discord": {
			"listenAlong": true,
			"enabled": true
		},
		"blur-nav-bar": {
			"enabled": true
		},
		"audio-compressor": {
			"enabled": false
		},
		"no-google-login": {
			"enabled": false
		},
		"album-color-theme": {
			"enabled": false
		},
		"ambient-mode": {
			"enabled": false
		},
		"adblocker": {
			"enabled": false
		},
		"visualizer": {
			"enabled": true,
			"type": "wave",
			"butterchurn": {
				"preset": "martin [shadow harlequins shape code] - fata morgana",
				"renderingFrequencyInMs": 500,
				"blendTimeInSeconds": 2.7
			},
			"vudio": {
				"effect": "lighting",
				"accuracy": 128,
				"lighting": {
					"maxHeight": 160,
					"maxSize": 12,
					"lineWidth": 1,
					"color": "#49f3f7",
					"shadowBlur": 2,
					"shadowColor": "rgba(244,244,244,.5)",
					"fadeSide": true,
					"prettify": false,
					"horizontalAlign": "center",
					"verticalAlign": "middle",
					"dottify": true
				}
			},
			"wave": {
				"animations": [
					{
						"type": "Cubes",
						"config": {
							"bottom": true,
							"count": 30,
							"cubeHeight": 5,
							"fillColor": {
								"gradient": [
									"#FAD961",
									"#F76B1C"
								]
							},
							"lineColor": "rgba(0,0,0,0)",
							"radius": 20
						}
					},
					{
						"type": "Cubes",
						"config": {
							"top": true,
							"count": 12,
							"cubeHeight": 5,
							"fillColor": {
								"gradient": [
									"#FAD961",
									"#F76B1C"
								]
							},
							"lineColor": "rgba(0,0,0,0)",
							"radius": 10
						}
					},
					{
						"type": "Circles",
						"config": {
							"lineColor": {
								"gradient": [
									"#FAD961",
									"#FAD961",
									"#F76B1C"
								],
								"rotate": 90
							},
							"lineWidth": 4,
							"diameter": 20,
							"count": 10,
							"frequencyBand": "base"
						}
					}
				]
			}
		},
		"lyrics-genius": {
			"enabled": true
		},
		"in-app-menu": {
			"enabled": true
		},
		"scrobbler": {
			"enabled": true
		}
	},
	"__internal__": {
		"migrations": {
			"version": "3.3.12"
		}
	}
}